70082da2775ce628f7ddd0824f405d5c8f844348ea77bf22b6
0bbdd9db4ea06e47dd5bc736f4b56e9efdf8111c8a0a1847e5
c8ca6e7f562f02fa4bd37c0dd7357b6ca0658bc1af016afe1a
d82eb20a3f5f64b6c3e923416cb955618288498758ad80f123
2765b6869279ed47d42535f15581a2dbc21dc7954092bce134
61674d2727d75e7e161bd670132afe4bc326b6d4fca7efab89
b226d5149e89d23315fe8ac0615b2ecc968a05afffd6f2ad9a
838c58e4707915b59e17a6e03751ed79f6ddd593e40b365521
bf5759f8a9125c48cc0f74e9e0e574b9b41a3aca3d4a01dad9
873e3efa1aa91bf666e236dc4f9bef6a0efce471765640f7cf
6bc97fab4bf21330a6a4eab8ae64b3b01f9a11ca0c1dc80875
b7b75493bf5ace4de625b443511b15752590d93130bc630733
75d10bc9403dd527f6d10cc63c9b0893d08b7cdffc27d73814
0fe10d096da449e7d7afaf0b69d1394f91fc32357c6fd428f8
8df91ec5ff744cb48eee949e3dc897e447e3403c3316dbe612
29da02bac342f3793dde4795ea97e3216dab0866dcc98027d4
8fa363c49f6b990519f4ea11e933496239fc30bd5f90510b72
5cd66449d78178c95bc8c067ec2fc384c96a305afa5d81b754
93dc065d677fc993a7c53c1b427d2749aa09f593ae97fb33f7
2f5329cfa260ff6615dbba4d920a69a11bf5ee28765eeaa0a6
baa792a329bed586dd9bf449af298db9c2435aa14ded4e9971
c270233bffe01a442232014444fbaad9e922b1ccca19186b6b
c0b213802c84cd72c16997a32a060b927ec53723a67803d657
3073fe161f1393114ac81ee02ae058f527d30bb5ac5b30472d
057b1d1ebe571d222fbdd12ad46119429be6754b43ca6f438b
58f206a2526f5427858a880546446ea9a241358ad9354d2c89
472ea16fff6c2f8cc17e1c54207a5c6f18c2be3d537add1e13
bae2b0f7d41118b0be52ac49402abbdd6bef174575edea81e6
35eacea856487f3ad72e70bf66a33ddf5de54adce6a6329165
ee49925ce9b910ba109477196a72e9a51ac9281ba42a768b83
121507b111246628a39bb0cf63516de62c2085f722bc3366dd
4b27da0e959e155730104ac8c521267042a89d7271c1c2a81e
895a0147bba2debe0c4f8b0de16453a8a54eae6b264f179203
43359a0138af9e3635f2981a017188d78910bb9beb0ae2d191
7ebf5a65f0bb394f2964c873e26057ce634e087a2d3fbd44a0
10df0cd0d20e47874a097f726334cf5d58c0025cf2342230c0
8aed9e32fe4cffa82de56ead35d00bc733eaee1e0fd26c14bf
f4ebfd97b3e92acd378a96ea78556927470f1ed3217d071012
2cb88d8af257783545632f8e4d063e602d2f6e04a0c0b3bf09
a43e159c22a64e5acef8c484cfd28755eb47cad2d5489b52e0
