f22a13beed0099366e0f096f8de4efc5180c912a9ec42c8f5a
7055ef630e92dc2a784abd3a74d822bb9453b75d32de609b40
e76c18fc41e666db79a2dfa5c3c891392200e38a417f7ce0d9
8c16e4816387ce7301ed867ee4902039f083e46666b2bf965e
d501942f2120d7dd94499a24b7857cb5b91e83009f64e3b83e
0dffe0e6a254f04cd59c6b338fff9c463f12eaefd6ec7273db
b5f4d8253258388374e9859da9af6d27703dd80581cbe7bfe8
4fd17dc36b32b4b790c896c5c7c0d83936791d81b8a7739c02
711946d073e84b54cab5a2117447b795f5dc8443fad802bb4f
5dd57179be898da233c79556dee9bcae86739188ff6cb3d713
1969d9f211ba68fb9feb6d3f15d56733f035849e5369eee64c
bbbbdc5fcebb8ed05f48d388ac59f4422b35c9dd4bbca6ab84
79cc162ee446e9951cd81f4307c05b74919452ee800b77d005
bbb870e7a55495ee201f178889c39c6b8eab0bdab49c6a217f
3b113c3a0c8c738a573962a939d841de27e3f3b7f2a5a86f72
56a62f4e6132ddaf325ff7488a092def48979342bd025bcfdd
fa16c5fb3e2225044ee7bc4864af1ea1d61274186d225ff7d3
316f70b3df06f04a6d3044cf56dbe25416f14ee248213b8a42
581e9808cbf355086145eabb81ba6fa338fc2e5525cd05eafb
1496bcc52354df8609fef70a93ca84b8945a31c6e2829f5a9b
9fe4301d572e5730d6d92fd731c478eaacd3537128d03b1374
cd44aec3632ec8136db85193a73e3d4770b8adb90e0022913a
4a3951c9fdcf31ee7c543969aa82f1ff99eb9cd59bed35e44c
b7df3a7b7cc3232340eb8b5d34ebb534113a0fe2388ddbf812
65923229445e8b31af4488695384be3b1026f3965eafced323
d470a2bbc8965dac6c4d2ce1a0644d889af41f4786d18b4297
bbf5cc1cc5572c2964d0c6e8bd6c9eda0c8571c496d9b298b0
ed0db3be7eb3e035be1c887eea64fac9c94b9a6abb233ca0b2
a7295701d88af4d9d3393fe8e01f135a33c55d95eeb8847003
16fa9f5a18026409fee08b5bf5e179e3f9ae088523dac751d9
fc8f6eed110d3f5585ab34a25429dfce0c17a73929d7a1f194
d6c3f0a350bf3f86e73de213ace5862b1d46a1ae749acb63e8
362c6badcb88113653ec8a2f8a5abf0d2bd97a15969dadfd03
eb30b121f498d8b76cd69d45b7907b63cfb0bc2db46b785477
0a88313e1fcc52480142697e975cccb75506278cb2794dc51f
8bb49cb405cbeabbbdf7b2ff5a97307782d6f66b0c4b3e1dcf
ad7e496f0cc4fc8ef249443d64299bef63be7552708d4fda7d
e9b4434174efc5265409d5864a3050da33b6c380855d7d02c5
251e041cf200e0302c4b6ef2c23b4546d6b967f518261d9b24
7d826b093349e1b2c2eef93276f9acbb073669968bb3282449
